{
  "root": "apps/medicia-rule",
  "sourceRoot": "apps/medicia-rule/src",
  "projectType": "application",
  "targets": {
    "build": {
      "executor": "@nrwl/node:webpack",
      "outputs": [
        "{options.outputPath}"
      ],
      "options": {
        "outputPath": "dist/apps/medicia-rule",
        "main": "apps/medicia-rule/src/main.ts",
        "tsConfig": "apps/medicia-rule/tsconfig.app.json",
        "assets": [
          "apps/medicia-rule/src/assets"
        ]
      },
      "configurations": {
        "production": {
          "optimization": true,
          "extractLicenses": true,
          "inspect": false,
          "fileReplacements": [
            {
              "replace": "apps/medicia-rule/src/environments/environment.ts",
              "with": "apps/medicia-rule/src/environments/environment.prod.ts"
            }
          ]
        }
      }
    },
    "serve": {
      "executor": "@nrwl/node:node",
      "options": {
        "buildTarget": "medicia-rule:build"
      }
    },
    "lint": {
      "executor": "@nrwl/linter:eslint",
      "outputs": [
        "{options.outputFile}"
      ],
      "options": {
        "lintFilePatterns": [
          "apps/medicia-rule/**/*.ts"
        ]
      }
    },
    "test": {
      "executor": "@nrwl/jest:jest",
      "outputs": [
        "coverage/apps/medicia-rule"
      ],
      "options": {
        "jestConfig": "apps/medicia-rule/jest.config.js",
        "passWithNoTests": true
      }
    }
  },
  "tags": []
}
